{
  "meta" : { },
  "title" : "Hoppsan",
  "sha1" : "maniac",
  "annotations" : [ {
    "concepts" : [ {
      "preferred-label" : "C, programmeringsspråk",
      "type" : "skill",
      "id" : "o8wR_57f_jv9"
    } ],
    "start-position" : 25,
    "end-position" : 26,
    "matched-string" : "C",
    "annotation-id" : 1
  } ],
  "text" : "Jag kan inte programmera C."
}